Milestone-Report.knit
…
2.89

1.161

2.89

0.00

Note, there are 1000 replications in the above benchmark test, the
times displayed above can be thought of as the average time for each
request in milliseconds.

Evaluating the accuracy for in-sample data:

## # A tibble: 198,772 x 4
##    input                      true         preds[,1] [,2]    [,3]    correct
##    <chr>                      <chr>        <chr>     <chr>   <chr>   <lgl>  
##  1 "met those limits"         before       before    <EOS>   are     TRUE   
##  2 "team and the"             other        first     other   game    TRUE   
##  3 "dab stencil brush"        in           <EOS>     and     the     FALSE  
##  4 "potential foreclosure of" another      the       my      another TRUE   
##  5 "he even ordered"          the          the       to      a       TRUE   
##  6 "of what legislators"      want         to        was     <EOS>   FALSE  
##  7 "pm pm monday"             to           to        through <EOS>   TRUE   
##  8 "responding to a"          conservation new       record  victory FALSE  
##  9 "  prepeyton"              years        is        i       the     FALSE  
## 10 "to resolve those"         cases        who       are     and     FALSE  
## # ... with 198,762 more rows
…
